// Jest Snapshot v1, https://goo.gl/fbAQLP

exports[`renders correctly 1`] = `
<a
  aria-current="true"
  aria-label={undefined}
  className="logo active"
  href="/"
  onClick={[Function]}
  role={undefined}
  style={Object {}}
>
  <img
    alt="React"
    src="test-file-stub"
  />
  <span>
    Planet React
  </span>
</a>
`;
