// Jest Snapshot v1, https://goo.gl/fbAQLP

exports[`has a known query shape 1`] = `
"mutation ToggleSubscriptionMutation($id: Int, $type: String!, $value: String!) {
  toggleSubscription(id: $id, type: $type, value: $value) {
    id
  }
}
"
`;
