// Jest Snapshot v1, https://goo.gl/fbAQLP

exports[`renders correctly 1`] = `
<div
  className="loading-bar"
>
  <div />
</div>
`;

exports[`renders correctly 2`] = `
<div
  className="loading-bar"
>
  <div />
</div>
`;
