// Jest Snapshot v1, https://goo.gl/fbAQLP

exports[`has a known query shape 1`] = `
"query ReportsQuery {
  reports {
    id
    content_id
    title
    url
    reason
    other_reason
    created_at
    updated_at
  }
}
"
`;
