// Jest Snapshot v1, https://goo.gl/fbAQLP

exports[`renders correctly 1`] = `
<footer>
  <span>
    Planet React
     
    <span>
       - 
    </span>
    <a
      aria-current={false}
      aria-label={undefined}
      className={undefined}
      href="/legal/screens/terms"
      onClick={[Function]}
      role={undefined}
      style={undefined}
    >
      Terms and Conditions
    </a>
    <span>
       - 
    </span>
    <a
      aria-current={false}
      aria-label={undefined}
      className={undefined}
      href="/legal/privacy"
      onClick={[Function]}
      role={undefined}
      style={undefined}
    >
      Privacy Policy
    </a>
    <span>
       - 
    </span>
    <a
      aria-current={false}
      aria-label={undefined}
      className={undefined}
      href="/faq"
      onClick={[Function]}
      role={undefined}
      style={undefined}
    >
      FAQ
    </a>
    <span>
       - 
    </span>
    <a
      href="https://gitlab.com/planet-react/planet-react.org"
    >
      Source code and issues
    </a>
    <span>
       - 
    </span>
    <span>
      <a
        href="/api/feed"
      >
        Atom Feed
      </a>
    </span>
  </span>
</footer>
`;
