// Jest Snapshot v1, https://goo.gl/fbAQLP

exports[`has a known query shape 1`] = `
"mutation ToogleBookmarkMutation($id: Int, $title: String!, $url: String!, $tags: String) {
  toggleBookmark(id: $id, title: $title, url: $url, tags: $tags) {
    id
    created_at
  }
}
"
`;
