// Jest Snapshot v1, https://goo.gl/fbAQLP

exports[`has a known query shape 1`] = `
"query FeedQuery($slug: String!, $includeTags: Boolean = false) {
  feed(slug: $slug, includeTags: $includeTags) {
    ...commonFeedFields
    tags @include(if: $includeTags) {
      tag_slug
      tag_count
    }
  }
}

fragment commonFeedFields on Feed {
  id
  source_type
  has_owner
  name
  slug
  feed_url
  website_url
  twitter_url
  repo_url
  image
  description
  lang
  total_post_count
  month_post_count
  created_at
  updated_at
  last_fetched_at
  user_is_owner
}
"
`;
