// Jest Snapshot v1, https://goo.gl/fbAQLP

exports[`renders correctly 1`] = `
<ul
  className="menu menu-pill menu-left"
>
  <li>
    <a
      aria-current={false}
      aria-label={undefined}
      className={undefined}
      href="a"
      onClick={[Function]}
      role={undefined}
      style={undefined}
    >
      Menu Item 1
    </a>
  </li>
  <li>
    <a
      aria-current={false}
      aria-label={undefined}
      className={undefined}
      href="a/b"
      onClick={[Function]}
      role={undefined}
      style={undefined}
    >
      Menu Item 2
    </a>
  </li>
  <li>
    <a
      aria-current={false}
      aria-label={undefined}
      className={undefined}
      href="a/b/c"
      onClick={[Function]}
      role={undefined}
      style={undefined}
    >
      Menu Item 3
    </a>
  </li>
</ul>
`;
